{
  "developmentRegion" : "en",
  "targetLocale" : "uk",
  "toolInfo" : {
    "toolBuildNumber" : "11A420a",
    "toolID" : "com.apple.dt.xcode",
    "toolName" : "Xcode",
    "toolVersion" : "11.0"
  },
  "version" : "1.0"
}